Agtor API · Agtor.jl
…
res = run_scenarios!(df, campaspe_basin; pre=allocation_precall!)
scen_results = collate_scenario_results(res, "income_sum")
# 36×3 DataFrame
#  Row │ Date        1           2
#      │ Date        Float64     Float64
# ─────┼────────────────────────────────────
#    1 │ 1982-01-20  -1.14443e7  -3.83782e6
#    2 │ 1982-10-08  -6.23264e6   1.77937e6
#    3 │ 1983-10-13  -1.04992e7  -3.17234e6
#    4 │ 1985-01-20  -1.31009e8  -3.82679e6
#   ⋮  │     ⋮           ⋮           ⋮
#   33 │ 2013-10-13  -1.10069e7  -3.67198e6
#   34 │ 2015-01-20  -1.31051e8  -3.93724e6
#   35 │ 2015-10-08  -1.25556e8   1.77678e6
#   36 │ 2016-10-13  -1.0844e7   -3.52039e6
#                            28 rows omitted
…
